<?xml version="1.0" encoding="UTF-8" standalone="no"?>
<!-- Created with Inkscape (http://www.inkscape.org/) -->

<svg
   width="400"
   height="400"
   viewBox="0 0 105.83333 105.83333"
   version="1.1"
   id="svg5"
   inkscape:version="1.2 (dc2aedaf03, 2022-05-15)"
   sodipodi:docname="thumbs-colors.svg"
   xmlns:inkscape="http://www.inkscape.org/namespaces/inkscape"
   xmlns:sodipodi="http://sodipodi.sourceforge.net/DTD/sodipodi-0.dtd"
   xmlns="http://www.w3.org/2000/svg"
   xmlns:svg="http://www.w3.org/2000/svg">
  <sodipodi:namedview
     id="namedview7"
     pagecolor="#ffffff"
     bordercolor="#666666"
     borderopacity="1.0"
     inkscape:showpageshadow="2"
     inkscape:pageopacity="0.0"
     inkscape:pagecheckerboard="0"
     inkscape:deskcolor="#d1d1d1"
     inkscape:document-units="mm"
     showgrid="false"
     showguides="true"
     inkscape:zoom="1.4142136"
     inkscape:cx="580.18111"
     inkscape:cy="425.67828"
     inkscape:window-width="2560"
     inkscape:window-height="1371"
     inkscape:window-x="0"
     inkscape:window-y="0"
     inkscape:window-maximized="1"
     inkscape:current-layer="layer1">
    <inkscape:page
       x="0"
       y="0"
       width="105.83333"
       height="105.83333"
       id="page326" />
    <inkscape:page
       x="-0.14069548"
       y="111.52644"
       width="105.83333"
       height="105.83333"
       id="page328" />
    <inkscape:page
       x="110.28474"
       y="0.09611816"
       width="105.8"
       height="105.8"
       id="page381" />
    <inkscape:page
       x="110.43573"
       y="111.56245"
       width="105.80001"
       height="105.80001"
       id="page383" />
    <inkscape:page
       x="219.96382"
       y="0.098185167"
       width="105.8"
       height="105.8"
       id="page435" />
    <inkscape:page
       x="219.83856"
       y="111.65636"
       width="105.79999"
       height="105.8"
       id="page437" />
    <sodipodi:guide
       position="199.8927,105.96562"
       orientation="0,-1"
       id="guide2666"
       inkscape:locked="false" />
    <sodipodi:guide
       position="105.96562,100.27708"
       orientation="1,0"
       id="guide2668"
       inkscape:locked="false" />
    <sodipodi:guide
       position="110.33125,90.884372"
       orientation="1,0"
       id="guide2670"
       inkscape:locked="false" />
    <sodipodi:guide
       position="220.00103,-3.0427083"
       orientation="1,0"
       id="guide2672"
       inkscape:locked="false" />
    <sodipodi:guide
       position="196.7177,-0.13229172"
       orientation="0,-1"
       id="guide2674"
       inkscape:locked="false" />
    <sodipodi:guide
       position="0,-5.6715134"
       orientation="1,0"
       id="guide2739"
       inkscape:locked="false" />
    <sodipodi:guide
       position="36.108112,-5.6715134"
       orientation="0,-1"
       id="guide2741"
       inkscape:locked="false" />
  </sodipodi:namedview>
  <defs
     id="defs2" />
  <g
     inkscape:label="Layer 1"
     inkscape:groupmode="layer"
     id="layer1">
    <rect
       style="opacity:1;fill:#4c4c4c;stroke-width:0.752909;stroke-linejoin:round"
       id="rect491"
       width="105.83334"
       height="105.83334"
       x="0"
       y="4.4408921e-16" />
    <rect
       style="opacity:1;fill:#51a2da;stroke-width:0.752909;stroke-linejoin:round"
       id="rect2660"
       width="105.83334"
       height="105.83334"
       x="110.3054"
       y="0.039790228" />
    <rect
       style="opacity:1;fill:#e59728;stroke-width:0.752909;stroke-linejoin:round"
       id="rect2662"
       width="105.83334"
       height="105.83334"
       x="219.97215"
       y="0.087849922" />
    <rect
       style="opacity:1;fill:#79db32;stroke-width:0.752909;stroke-linejoin:round"
       id="rect2743"
       width="105.83334"
       height="105.83334"
       x="0"
       y="111.68625" />
    <rect
       style="opacity:1;fill:#a07cbc;stroke-width:0.752909;stroke-linejoin:round"
       id="rect2745"
       width="105.83334"
       height="105.83334"
       x="110.39236"
       y="111.54335" />
    <rect
       style="opacity:1;fill:#db3279;stroke-width:0.752909;stroke-linejoin:round"
       id="rect2747"
       width="105.83334"
       height="105.83334"
       x="219.97215"
       y="111.58702" />
  </g>
</svg>
